Case study: Partial profiles
…
Run a mutation process

Up until now, only the genealogy has been simulated. Now, we run a mutational process, i.e. assign haplotypes to founders and let haplotypes flow down the individuals.

We use realistic data. In the package, there is information about the individual markers:

ystr_markers

## # A tibble: 29 x 5
##    Marker  Meioses Mutations  MutProb Alleles   
##    <fct>     <dbl>     <dbl>    <dbl> <list>    
##  1 DYS438   10673.        4. 0.000375 <dbl [22]>
##  2 DYS392   15418.        8. 0.000519 <dbl [22]>
##  3 DYS393   14264.       15. 0.00105  <dbl [17]>
##  4 DYS437   10652.       13. 0.00122  <dbl [15]>
##  5 DYS385a  26171.       32. 0.00122  <dbl [52]>
##  6 DYS385b  26171.       32. 0.00122  <dbl [52]>
##  7 DYS643    2220.        3. 0.00135  <dbl [17]>
##  8 DYS448    7229.       11. 0.00152  <dbl [36]>
##  9 DYS390   15612.       33. 0.00211  <dbl [19]>
## 10 DYS19    16090.       36. 0.00224  <dbl [19]>
## # ... with 19 more rows

Note, that MutProb is the point estimate given by MutProb = Mutations / Meioses. Information about which markers that are in which kit is also provided:

ystr_kits

## # A tibble: 50 x 2
##    Marker  Kit          
##    <fct>   <chr>        
##  1 DYS438  PowerPlex Y23
##  2 DYS392  PowerPlex Y23
##  3 DYS393  PowerPlex Y23
##  4 DYS437  PowerPlex Y23
##  5 DYS385a PowerPlex Y23
##  6 DYS385b PowerPlex Y23
##  7 DYS643  PowerPlex Y23
##  8 DYS448  PowerPlex Y23
##  9 DYS390  PowerPlex Y23
## 10 DYS19   PowerPlex Y23
## # ... with 40 more rows
Let us take all PowerPlex Y23 markers and assume that we only have a partial profile where DYS437 and DYS448 dropped out. At the same time, we also filter out the integer alleles (for generating random founder haplotypes in a minute):

partial_kit <- ystr_kits %>% 
  filter(Kit == "PowerPlex Y23") %>% 
  inner_join(ystr_markers, by = "Marker") %>% 
  filter(!(Marker %in% c("DYS437", "DYS448"))) %>% 
  rowwise() %>% # To work on each row
  mutate(IntegerAlleles = list(Alleles[Alleles == round(Alleles)]),
         MinIntAllele = min(IntegerAlleles),
         MaxIntAllele = max(IntegerAlleles)) %>% 
  ungroup() %>% 
  select(-Kit, -Alleles)
partial_kit

## # A tibble: 21 x 7
##    Marker  Meioses Mutations  MutProb IntegerAlleles MinIntAllele
##    <fct>     <dbl>     <dbl>    <dbl> <list>                <dbl>
##  1 DYS438   10673.        4. 0.000375 <dbl [14]>               5.
##  2 DYS392   15418.        8. 0.000519 <dbl [14]>               6.
##  3 DYS393   14264.       15. 0.00105  <dbl [12]>               7.
##  4 DYS385a  26171.       32. 0.00122  <dbl [23]>               6.
##  5 DYS385b  26171.       32. 0.00122  <dbl [23]>               6.
##  6 DYS643    2220.        3. 0.00135  <dbl [13]>               4.
##  7 DYS390   15612.       33. 0.00211  <dbl [14]>              17.
##  8 DYS19    16090.       36. 0.00224  <dbl [12]>               9.
##  9 DYS391   15486.       38. 0.00245  <dbl [12]>               5.
## 10 DYS389I  14339.       42. 0.00293  <dbl [9]>                9.
## # ... with 11 more rows, and 1 more variable: MaxIntAllele <dbl>
…
